<svg width="245.2" height="245.2" xmlns="http://www.w3.org/2000/svg">
 <defs>
  <style>.a {
        fill: #c00;
      }

      .b {
        fill: #fff;
      }</style>
 </defs>
 <title>Asset 1</title>
 <g>
  <title>background</title>
  <rect fill="none" id="canvas_background" height="247.2" width="247.2" y="-1" x="-1"/>
 </g>
 <g>
  <title>Layer 1</title>
  <g stroke="null" id="svg_1">
   <path stroke="null" id="svg_2" d="m245.2,122.6a122.6,122.6 0 1 1 -122.6,-122.6a122.61,122.61 0 0 1 122.6,122.6" class="a"/>
   <path stroke="null" id="svg_3" d="m181,173l-48.8,-117.4a7.92,7.92 0 0 0 -7.6,-5.2a8.17,8.17 0 0 0 -7.8,5.2l-53.5,128.8l18.3,0l21.2,-53.1l63.3,51.1c2.5,2.1 4.4,3 6.8,3a8.79,8.79 0 0 0 9,-8.8a10.9,10.9 0 0 0 -0.9,-3.6m-56.3,-96.3l31.7,78.3l-47.9,-37.8l16.2,-40.5z" class="b"/>
   <path stroke="null" id="svg_4" d="m341.35,67.16l-10,-20.66l-6.9,0l0,20.66l-16.61,0l0,-61.32l27.41,0a40.56,40.56 0 0 1 9.75,1.09a21.2,21.2 0 0 1 7.59,3.47a15.35,15.35 0 0 1 4.85,6.17a22.63,22.63 0 0 1 1.72,9.27a19.52,19.52 0 0 1 -3,11.28a19,19 0 0 1 -8.07,6.68l12.48,23.36l-19.22,0zm18.41,-45.63a7.56,7.56 0 0 0 -5.76,-1.82l-10.3,0l0,13.39l10,0a8.39,8.39 0 0 0 6,-1.75a6.87,6.87 0 0 0 1.82,-5.07a6.77,6.77 0 0 0 -20.98,-4.75l19.22,0z" class="b"/>
   <path stroke="null" id="svg_5" d="m373.17,67.16l0,-61.32l47,0l0,14.31l-30.17,0l0,8.21l18.25,0l0,14l-18.25,0l0,10.53l30.73,0l0,14.27l-47.56,0z" class="b"/>
   <path stroke="null" id="svg_6" d="m485.12,50.73a22,22 0 0 1 -6.31,9.57a25.63,25.63 0 0 1 -10.37,5.25a56.07,56.07 0 0 1 -14.31,1.61l-19.89,0l0,-61.32l21.46,0a53.4,53.4 0 0 1 13,1.49a23.71,23.71 0 0 1 10,5a23.41,23.41 0 0 1 6.3,9.38a41,41 0 0 1 2.23,14.61a43.23,43.23 0 0 1 -2.11,14.41zm-16.06,-21.57a12.06,12.06 0 0 0 -2.41,-5a10.33,10.33 0 0 0 -4.38,-2.85a21.09,21.09 0 0 0 -6.79,-0.91l-4.2,0l0,32.23l3.65,0a24.1,24.1 0 0 0 6.76,-0.84a10.3,10.3 0 0 0 4.6,-2.7a11.32,11.32 0 0 0 2.59,-5a33,33 0 0 0 0.76,-7.67a32.17,32.17 0 0 0 -0.58,-7.26z" class="b"/>
   <path stroke="null" id="svg_7" d="m568.09,67.16l0,-24.16l-19.09,0l0,24.16l-17.34,0l0,-61.32l17.34,0l0,22.34l19.09,0l0,-22.34l17.33,0l0,61.32l-17.33,0z" class="b"/>
   <path stroke="null" id="svg_8" d="m640.1,67.16l-3.32,-10.95l-18.25,0l-3.36,10.95l-18.25,0l22.27,-61.32l17.15,0l22.27,61.32l-18.51,0zm9.93,-28.29l-1.42,-5.15l-19.61,-3.94c-0.32,-1.17 -0.58,-2.26 -0.83,-3.21a24.64,24.64 0 0 1 -0.59,-3c-0.18,1.06 -0.4,2.08 -0.62,3.07s-0.51,2.08 -0.84,3.24l-1.12,4.06c-0.41,1.46 -0.88,3.14 -1.39,5.08l-1.17,4l10.18,0l17.41,-4.15z" class="b"/>
   <path stroke="null" id="svg_9" d="m693.17,20.66l0,46.5l-17,0l0,-46.5l-17.17,0l0,-14.82l51.35,0l0,14.82l-17.18,0z" class="b"/>
   <path stroke="null" id="svg_10" d="m733.1,16.46a7.52,7.52 0 0 1 -1.64,2.54a8.61,8.61 0 0 1 -2.52,1.68a8.79,8.79 0 0 1 -6.28,0a8.06,8.06 0 0 1 -2.48,-1.68a7.15,7.15 0 0 1 -1.68,-2.52a8.06,8.06 0 0 1 -0.58,-3.14a7.83,7.83 0 0 1 0.58,-3.1a7.15,7.15 0 0 1 1.68,-2.52a7.72,7.72 0 0 1 2.48,-1.72a8.79,8.79 0 0 1 6.28,0a8.24,8.24 0 0 1 2.52,1.68a7.52,7.52 0 0 1 1.64,2.52a8.13,8.13 0 0 1 0,6.26zm-1.16,-5.73a6.5,6.5 0 0 0 -1.39,-2.12a6.92,6.92 0 0 0 -2.12,-1.42a7.53,7.53 0 0 0 -5.25,0a6.35,6.35 0 0 0 -2.09,1.42a6.09,6.09 0 0 0 -1.42,2.12a6.93,6.93 0 0 0 0,5.22a6,6 0 0 0 1.42,2.11a6.78,6.78 0 0 0 9.42,0a6.35,6.35 0 0 0 1.39,-2.06a6.93,6.93 0 0 0 0,-5.22l0.04,-0.05zm-3,2.41a2.49,2.49 0 0 1 -1.35,0.87l1.78,3.65l-1.71,0l-1.66,-3.32l-1.68,0l0,3.32l-1.46,0l0,-8.79l3.65,0a3.38,3.38 0 0 1 1.1,0a2.81,2.81 0 0 1 0.91,0.47a2.29,2.29 0 0 1 0.58,0.8a3,3 0 0 1 0.26,1.17a2.79,2.79 0 0 1 -0.4,1.83l-0.02,0zm-1.35,-2.56a1.84,1.84 0 0 0 -1,-0.29l-2.3,0l0,2.45l2.3,0a1.61,1.61 0 0 0 1,-0.3a1,1 0 0 0 0.36,-0.91a1.14,1.14 0 0 0 -0.39,-0.95l0.03,0z" class="b"/>
   <path stroke="null" id="svg_11" d="m367.08,176.66l-7.89,-23.36l-38,0l-8.1,23.36l-10.4,0l31.94,-92l11.37,0l31.9,92l-10.82,0zm-21.08,-62.93c-0.55,-1.49 -1.09,-3.1 -1.64,-4.85s-1.13,-3.43 -1.64,-5.08s-1,-3.14 -1.39,-4.6s-0.73,-2.62 -1,-3.65c-0.25,1 -0.58,2.16 -1,3.65s-0.84,3 -1.39,4.6s-1.09,3.4 -1.71,5.22s-1.17,3.47 -1.68,5l-10.15,30l31.68,0l-10.08,-30.29z" class="b"/>
   <path stroke="null" id="svg_12" d="m453.55,176.66l-40.15,-62.93c-0.55,-0.8 -1.1,-1.71 -1.72,-2.81s-1.24,-2.19 -1.82,-3.28s-1.21,-2.16 -1.79,-3.11a20.51,20.51 0 0 1 -1.24,-2.37l0,74.5l-9.75,0l0,-92l10,0l39.64,64.13c0.51,0.8 1.1,1.75 1.72,2.85l1.82,3.28c0.62,1.1 1.21,2.12 1.79,3.07a24.28,24.28 0 0 1 1.24,2.37l0,-75.68l10,0l0,92l-9.74,-0.02z" class="b"/>
   <path stroke="null" id="svg_13" d="m541.77,162.61a21.82,21.82 0 0 1 -6,8.14a28.82,28.82 0 0 1 -9.56,5.54a38.61,38.61 0 0 1 -12.88,2a41.52,41.52 0 0 1 -17.42,-3.65a45.18,45.18 0 0 1 -13.46,-9.12l6.82,-7.63a47.38,47.38 0 0 0 11.32,8a28.89,28.89 0 0 0 13.14,3a22.86,22.86 0 0 0 14.6,-4.19a13.9,13.9 0 0 0 5.29,-11.57a15.57,15.57 0 0 0 -1,-5.77a13.44,13.44 0 0 0 -3.65,-4.86a34.82,34.82 0 0 0 -6.79,-4.41a85.34,85.34 0 0 0 -10.51,-4.38a93.71,93.71 0 0 1 -12.56,-5.33a34.08,34.08 0 0 1 -8.14,-5.8a18.6,18.6 0 0 1 -4.45,-6.9a25.82,25.82 0 0 1 -1.39,-8.8a22,22 0 0 1 2.11,-9.88a21.34,21.34 0 0 1 5.84,-7.3a25,25 0 0 1 9.05,-4.7a41.31,41.31 0 0 1 11.75,-1.57a42.14,42.14 0 0 1 15.73,2.63a49.78,49.78 0 0 1 12.27,7.3l-6.57,8a41.08,41.08 0 0 0 -10,-6.35a30.25,30.25 0 0 0 -12,-2.19a26.7,26.7 0 0 0 -8.22,1.18a16.08,16.08 0 0 0 -5.59,3a11.44,11.44 0 0 0 -3.14,4.27a13.75,13.75 0 0 0 -1,5.19a16.3,16.3 0 0 0 0.76,5.18a11.71,11.71 0 0 0 3.18,4.49a30.33,30.33 0 0 0 6.64,4.27a119.88,119.88 0 0 0 11.21,4.6a96,96 0 0 1 12.77,5.51a32.43,32.43 0 0 1 8.18,5.69a19.69,19.69 0 0 1 4.38,7.3a28.4,28.4 0 0 1 1.31,9.06a24.77,24.77 0 0 1 -2.02,10.05z" class="b"/>
   <path stroke="null" id="svg_14" d="m565.79,176.66l0,-92l10.14,0l0,92l-10.14,0z" class="b"/>
   <path stroke="null" id="svg_15" d="m656.23,169.91c-5.11,4.52 -12.52,6.75 -22.26,6.75l-32.85,0l0,-92l33.21,0a34.7,34.7 0 0 1 10.08,1.38a22.78,22.78 0 0 1 8.17,4.2a19.2,19.2 0 0 1 5.19,7.3a26.68,26.68 0 0 1 1.82,10.22a18.55,18.55 0 0 1 -3.65,12.16a21.12,21.12 0 0 1 -9.56,6.6a30.18,30.18 0 0 1 6.2,2.3a20.37,20.37 0 0 1 5.66,4.35a20.62,20.62 0 0 1 4,6.6a25.79,25.79 0 0 1 1.57,9.53q-0.02,13.82 -7.58,20.61zm-10.54,-72a15.17,15.17 0 0 0 -11.47,-3.91l-23,0l0,28.51l22.23,0a15.53,15.53 0 0 0 12.23,-4.24a15.28,15.28 0 0 0 3.66,-10.27a14.07,14.07 0 0 0 -3.8,-10.11l0.15,0.02zm2.73,38.69a20.71,20.71 0 0 0 -14.31,-4.71l-22.88,0l0,35.48l23.1,0c6.94,0 11.83,-1.57 14.6,-4.74a17.77,17.77 0 0 0 4.35,-12.6a17.18,17.18 0 0 0 -5,-13.43l0.14,0z" class="b"/>
   <path stroke="null" id="svg_16" d="m683.1,176.66l0,-92l10.25,0l0,82.67l45.48,0l0,9.31l-55.73,0.02z" class="b"/>
   <path stroke="null" id="svg_17" d="m758.65,176.66l0,-92l55.59,0l0,9.34l-45.33,0l0,28.91l26.28,0l0,9.34l-26.28,0l0,35.08l47.45,0l0,9.31l-57.71,0.02z" class="b"/>
   <path stroke="null" id="svg_18" d="m840.16,95.48a7.28,7.28 0 0 1 -1.68,2.52a7.77,7.77 0 0 1 -2.48,1.64a8.21,8.21 0 0 1 -8.8,-1.64a7.94,7.94 0 0 1 -1.64,-2.52a8.13,8.13 0 0 1 0,-6.24a7.52,7.52 0 0 1 1.64,-2.52a7.78,7.78 0 0 1 2.52,-1.72a8.72,8.72 0 0 1 6.28,0a7.36,7.36 0 0 1 2.48,1.68a7.15,7.15 0 0 1 1.68,2.52a8.22,8.22 0 0 1 0,6.28zm-1.16,-5.73a6.19,6.19 0 0 0 -1.39,-2.12a6.35,6.35 0 0 0 -4.74,-1.89a6.77,6.77 0 0 0 -2.63,0.47a7,7 0 0 0 -2.12,1.42a6.31,6.31 0 0 0 -1.38,2.12a6.93,6.93 0 0 0 0,5.22a6.47,6.47 0 0 0 1.38,2.12a6.75,6.75 0 0 0 2.12,1.38a6.27,6.27 0 0 0 2.63,0.52a6.43,6.43 0 0 0 2.63,-0.52a6.7,6.7 0 0 0 2.11,-1.38a6.5,6.5 0 0 0 1.39,-2.09a6.93,6.93 0 0 0 0,-5.25zm-3,2.41a2.56,2.56 0 0 1 -1.35,0.88l1.79,3.46l-1.75,0l-1.69,-3.32l-1.53,0l0,3.32l-1.47,0l0,-8.61l3.65,0a3.32,3.32 0 0 1 1.09,0a2.67,2.67 0 0 1 0.88,0.47a2.47,2.47 0 0 1 0.62,0.81a3.12,3.12 0 0 1 0.22,1.17a2.7,2.7 0 0 1 -0.48,2l0.02,-0.18zm-1.39,-2.55a1.72,1.72 0 0 0 -1,-0.3l-2.15,0l0,2.45l2.26,0a1.71,1.71 0 0 0 1,-0.29a1,1 0 0 0 0.41,-0.92a1.06,1.06 0 0 0 -0.52,-0.94z" class="b"/>
   <path stroke="null" id="svg_19" d="m336.2,242.36l-18.2,-28.84c-0.55,-0.87 -1.21,-1.86 -1.86,-3l-1.57,-2.62l0,34.49l-6.68,0l0,-46l7,0l17.48,28.07c0.33,0.47 0.66,1 1,1.64l1.1,1.86a16.65,16.65 0 0 0 1,1.75l0.73,1.24l0,-34.58l6.68,0l0,46l-6.68,-0.01z" class="b"/>
   <path stroke="null" id="svg_20" d="m381.68,226.19l0,1.35l-22.92,0a14,14 0 0 0 1,4.27a10.15,10.15 0 0 0 2,2.92a8.45,8.45 0 0 0 5.66,2.26a10.64,10.64 0 0 0 4,-0.73a15.58,15.58 0 0 0 3.65,-2l3.79,4.34a16.61,16.61 0 0 1 -5.11,3.36a18.08,18.08 0 0 1 -6.75,1.17a14.42,14.42 0 0 1 -5.69,-1.1a13.37,13.37 0 0 1 -4.75,-3.65a16.65,16.65 0 0 1 -3.25,-5.54a23.84,23.84 0 0 1 -1.17,-7.63a25.29,25.29 0 0 1 1.1,-7.78a17.1,17.1 0 0 1 3.1,-5.62a13.24,13.24 0 0 1 4.78,-3.43a15.34,15.34 0 0 1 6.13,-1.17a14.08,14.08 0 0 1 6.39,1.35a13.5,13.5 0 0 1 4.56,3.65a16,16 0 0 1 2.67,5.51a23.36,23.36 0 0 1 0.91,6.65c-0.03,0.69 -0.06,1.27 -0.1,1.82zm-7.3,-7.59a8.15,8.15 0 0 0 -1.46,-2.78a7.2,7.2 0 0 0 -2.48,-1.86a8.06,8.06 0 0 0 -3.65,-0.69a6.9,6.9 0 0 0 -5.41,2.26a11.53,11.53 0 0 0 -2.48,6.47l16.1,0a15.91,15.91 0 0 0 -0.69,-3.36l0.07,-0.04z" class="b"/>
   <path stroke="null" id="svg_21" d="m406.13,241.52a10.78,10.78 0 0 1 -2.95,1.13a14.53,14.53 0 0 1 -3.65,0.44a7.3,7.3 0 0 1 -5.7,-2.23a9.86,9.86 0 0 1 -2.08,-6.9l0,-19.89l-4.92,0l0,-6.2l4.92,0l0,-9.68l6.65,-3.65l0,13.4l8.54,0l0,6.2l-8.54,0l0,18.73a4.84,4.84 0 0 0 0.84,3.28a3.58,3.58 0 0 0 2.7,0.84a8.86,8.86 0 0 0 2.7,-0.43a10.24,10.24 0 0 0 2.3,-0.95l-0.81,5.91z" class="b"/>
   <path stroke="null" id="svg_22" d="m446.47,242.36l-5.81,0l-4.66,-17.36l-1,-4c-0.33,-1.38 -0.59,-2.48 -0.77,-3.32c-0.18,0.84 -0.44,1.94 -0.77,3.36s-0.65,2.74 -1,4.05l-4.6,17.34l-5.77,0l-9.45,-34.49l6.68,0l4.09,16.75c0.34,1.31 0.67,2.7 1,4.16s0.55,2.59 0.73,3.4c0.22,-0.88 0.48,-2 0.84,-3.4s0.7,-2.77 1.06,-4.16l4.6,-16.75l5.62,0l4.67,16.82c0.37,1.35 0.7,2.74 1,4.13s0.58,2.48 0.8,3.36c0.22,-0.88 0.47,-2 0.77,-3.44s0.62,-2.81 0.94,-4.12l4.09,-16.75l6.68,0l-9.74,34.42z" class="b"/>
   <path stroke="null" id="svg_23" d="m490.41,232.61a17.14,17.14 0 0 1 -3.28,5.73a14.51,14.51 0 0 1 -4.93,3.66a15.54,15.54 0 0 1 -6.2,1.2a14.53,14.53 0 0 1 -5.95,-1.21a13.9,13.9 0 0 1 -4.78,-3.65a16.7,16.7 0 0 1 -3.21,-5.65a22.1,22.1 0 0 1 -1.13,-7.3a23.11,23.11 0 0 1 1.17,-7.56a17.88,17.88 0 0 1 3.24,-5.69a14.09,14.09 0 0 1 4.9,-3.65a15,15 0 0 1 6.05,-1.21a14.31,14.31 0 0 1 11,4.93a16.48,16.48 0 0 1 3.21,5.62a21.81,21.81 0 0 1 1.13,7.3a23.51,23.51 0 0 1 -1.22,7.48zm-8,-15.87a7.49,7.49 0 0 0 -6.41,-3.14a7,7 0 0 0 -6.1,3.14a16.86,16.86 0 0 0 0.19,16.93a7.61,7.61 0 0 0 6.24,3a7,7 0 0 0 3.65,-0.91a8.88,8.88 0 0 0 2.7,-2.48a11.51,11.51 0 0 0 1.71,-3.65a16,16 0 0 0 0.59,-4.45a13.59,13.59 0 0 0 -2.56,-8.44l-0.01,0z" class="b"/>
   <path stroke="null" id="svg_24" d="m518.74,215.06a12.39,12.39 0 0 0 -2.3,-0.95a11.09,11.09 0 0 0 -2.92,-0.33a6,6 0 0 0 -5,2.26a10.28,10.28 0 0 0 -1.78,6.61l0,19.71l-6.83,0l0,-34.49l6.83,0l0,3.28a9.64,9.64 0 0 1 3.26,-2.85a9.4,9.4 0 0 1 4.64,-1.13a15.58,15.58 0 0 1 3.47,0.33a8.38,8.38 0 0 1 2.37,1.1l-1.74,6.46z" class="b"/>
   <path stroke="null" id="svg_25" d="m547.1,242.36l-7.67,-17.12l-5.29,6.94l0,10.18l-6.75,0l0,-44.17l6.82,-3.65l0,29.2l1.79,-2.74c0.73,-1.14 1.39,-2.08 2,-2.92l7.3,-10.08l7.7,0l-8.76,11.57l10.4,22.92l-7.54,-0.13z" class="b"/>
   <path stroke="null" id="svg_26" d="m611.23,242.36l-3.87,-11l-18.25,0l-3.65,11l-7.3,0l16.57,-46l7.27,0l16.75,46l-7.52,0zm-2.23,-27.63c-0.25,-0.84 -0.54,-1.75 -0.91,-2.78s-0.69,-2 -1,-3s-0.62,-1.93 -0.91,-2.77s-0.48,-1.53 -0.62,-2l-0.59,2c-0.24,0.83 -0.53,1.74 -0.87,2.74s-0.62,2 -0.95,3.06s-0.62,2 -1,2.81l-11.15,10.49l14.12,0l3.88,-10.55z" class="b"/>
   <path stroke="null" id="svg_27" d="m646.38,242.36l0,-3.36a8.52,8.52 0 0 1 -3.65,3a11.53,11.53 0 0 1 -5,1.06a11,11 0 0 1 -9.16,-3.87a18.2,18.2 0 0 1 -3.1,-11.57l0,-19.75l6.82,0l0,19.52a11,11 0 0 0 1.86,7.3a6.6,6.6 0 0 0 5.19,2.08a6.39,6.39 0 0 0 5.25,-2.08a10.28,10.28 0 0 0 1.83,-6.49l0,-20.33l6.82,0l0,34.49l-6.86,0z" class="b"/>
   <path stroke="null" id="svg_28" d="m679.63,241.52a10.92,10.92 0 0 1 -2.92,1.13a14.94,14.94 0 0 1 -3.65,0.44a7.28,7.28 0 0 1 -5.69,-2.23a9.85,9.85 0 0 1 -2,-6.9l0,-19.89l-4.93,0l0,-6.2l4.93,0l0,-9.68l6.61,-3.65l0,13.4l8.54,0l0,6.2l-8.54,0l0,18.73a4.9,4.9 0 0 0 0.84,3.28a3.64,3.64 0 0 0 2.74,0.84a8.61,8.61 0 0 0 2.66,-0.43a9.08,9.08 0 0 0 2.3,-0.95l-0.89,5.91z" class="b"/>
   <path stroke="null" id="svg_29" d="m716.2,232.61a15.92,15.92 0 0 1 -3.28,5.73a13.86,13.86 0 0 1 -4.92,3.66a15.2,15.2 0 0 1 -6.17,1.21a14.23,14.23 0 0 1 -6,-1.28a13.83,13.83 0 0 1 -4.82,-3.65a17.37,17.37 0 0 1 -3.17,-5.66a24,24 0 0 1 0,-14.89a16.55,16.55 0 0 1 3.25,-5.69a13.82,13.82 0 0 1 4.85,-3.65a15.2,15.2 0 0 1 6.1,-1.21a14.63,14.63 0 0 1 10.96,4.82a16.06,16.06 0 0 1 3.21,5.62a22.1,22.1 0 0 1 1.17,7.3a22.64,22.64 0 0 1 -1.18,7.69zm-8,-15.87a7.57,7.57 0 0 0 -6.5,-3.14a7,7 0 0 0 -6.06,3.14a13.92,13.92 0 0 0 -2.14,8.26a13.65,13.65 0 0 0 2.37,8.72a7.64,7.64 0 0 0 6.24,3a7.25,7.25 0 0 0 3.65,-0.91a9.3,9.3 0 0 0 2.71,-2.48a10.91,10.91 0 0 0 1.67,-3.65a16,16 0 0 0 0.63,-4.45a13.86,13.86 0 0 0 -2.52,-8.49l-0.05,0z" class="b"/>
   <path stroke="null" id="svg_30" d="m766,242.36l0,-19.46a12.22,12.22 0 0 0 -1.64,-7.3a6,6 0 0 0 -5,-2.11a5.67,5.67 0 0 0 -5,2.3a10.92,10.92 0 0 0 -1.64,6.49l0,20.08l-6.83,0l0,-19.46a12.22,12.22 0 0 0 -1.64,-7.3a6,6 0 0 0 -5,-2.11a5.67,5.67 0 0 0 -5,2.3a11,11 0 0 0 -1.61,6.49l0,20.08l-7,0l0,-34.49l6.87,0l0,3.35a8.48,8.48 0 0 1 3.43,-3a10.13,10.13 0 0 1 4.78,-1.06a11.61,11.61 0 0 1 5.84,1.28a9.83,9.83 0 0 1 3.65,3.65a17.94,17.94 0 0 1 1.93,-2.15a10.88,10.88 0 0 1 2.3,-1.57a10.68,10.68 0 0 1 2.78,-1a15.44,15.44 0 0 1 3.65,-0.37a10.49,10.49 0 0 1 9,3.87a19.22,19.22 0 0 1 2.88,11.57l0,19.93l-6.75,-0.01z" class="b"/>
   <path stroke="null" id="svg_31" d="m802.23,242.36l0,-3.36a15.76,15.76 0 0 1 -4.19,3a12.42,12.42 0 0 1 -5.26,1.17a14.11,14.11 0 0 1 -4.23,-0.62a11.09,11.09 0 0 1 -3.87,-2a10.27,10.27 0 0 1 -2.78,-3.65a12.09,12.09 0 0 1 -1.09,-5.36a11,11 0 0 1 1.06,-5a10.14,10.14 0 0 1 2.88,-3.65a12.53,12.53 0 0 1 4.34,-2a21.27,21.27 0 0 1 5.44,-0.66a19.09,19.09 0 0 1 7.7,1.31l0,-2.59a5.42,5.42 0 0 0 -1.67,-4.3a6.87,6.87 0 0 0 -4.82,-1.54a19.59,19.59 0 0 0 -4.82,0.55a15.81,15.81 0 0 0 -4.2,1.64l-2.74,-5a23.28,23.28 0 0 1 5.33,-2.3a25,25 0 0 1 6.5,-0.77a14.61,14.61 0 0 1 9.38,2.85a10.52,10.52 0 0 1 3.65,8.69l0,23.65l-6.61,-0.06zm6.61,-14.54a12.78,12.78 0 0 0 -3.24,-1.1a21.25,21.25 0 0 0 -4.64,-0.4a8.49,8.49 0 0 0 -5.18,1.39a4.31,4.31 0 0 0 -1.9,3.65a5.49,5.49 0 0 0 1.64,4.16a7.05,7.05 0 0 0 5,1.57a9.16,9.16 0 0 0 5,-1.39a11.42,11.42 0 0 0 3.39,-3l-0.07,-4.88z" class="b"/>
   <path stroke="null" id="svg_32" d="m835.09,241.52a11.05,11.05 0 0 1 -2.92,1.13a15,15 0 0 1 -3.65,0.44a7.29,7.29 0 0 1 -5.7,-2.23a10,10 0 0 1 -2.33,-6.9l0,-19.89l-4.93,0l0,-6.2l4.93,0l0,-9.68l6.64,-3.65l0,13.4l8.54,0l0,6.2l-8.54,0l0,18.73a4.88,4.88 0 0 0 0.8,3.28a3.64,3.64 0 0 0 2.74,0.84a8.81,8.81 0 0 0 2.7,-0.43a10.05,10.05 0 0 0 2.3,-0.95l-0.58,5.91z" class="b"/>
   <path stroke="null" id="svg_33" d="m851.73,202.14a4.17,4.17 0 1 1 0,-6.17a4.39,4.39 0 0 1 0,6.17zm-6.46,40.15l0,-34.42l6.82,0l0,34.49l-6.82,-0.07z" class="b"/>
   <path stroke="null" id="svg_34" d="m890.27,232.61a17.14,17.14 0 0 1 -3.28,5.73a14.51,14.51 0 0 1 -4.93,3.65a15.72,15.72 0 0 1 -6.2,1.21a14,14 0 0 1 -11,-4.93a17.39,17.39 0 0 1 -3.18,-5.66a24.73,24.73 0 0 1 0,-14.89a17.15,17.15 0 0 1 3.32,-5.72a13.91,13.91 0 0 1 4.85,-3.65a15.24,15.24 0 0 1 6.1,-1.21a14.35,14.35 0 0 1 11,4.93a16,16 0 0 1 3.24,5.62a23.21,23.21 0 0 1 1.14,7.3a23.79,23.79 0 0 1 -1.06,7.62zm-8,-15.87a7.56,7.56 0 0 0 -6.46,-3.14a7,7 0 0 0 -6.1,3.14a14,14 0 0 0 -2.19,8.21a13.65,13.65 0 0 0 2.38,8.72a7.61,7.61 0 0 0 6.24,3a7.3,7.3 0 0 0 3.47,-0.91a9.39,9.39 0 0 0 2.7,-2.48a11.51,11.51 0 0 0 1.71,-3.65a17.6,17.6 0 0 0 0.59,-4.45a13.57,13.57 0 0 0 -2.33,-8.44l-0.01,0z" class="b"/>
   <path stroke="null" id="svg_35" d="m920.75,242.36l0,-19.46a11,11 0 0 0 -1.86,-7.3a6.66,6.66 0 0 0 -5.22,-2.11a6.22,6.22 0 0 0 -5.22,2.3a10.19,10.19 0 0 0 -1.82,6.49l0,20.08l-6.83,0l0,-34.49l6.83,0l0,3.35a8.16,8.16 0 0 1 3.65,-3a11.61,11.61 0 0 1 5,-1.06a11,11 0 0 1 9.16,3.87a18,18 0 0 1 3.14,11.57l0,19.75l-6.83,0.01z" class="b"/>
  </g>
 </g>
</svg>