<?xml version="1.0" encoding="UTF-8"?>
<svg width="1109px" height="601px" viewBox="0 0 1109 601" version="1.1" xmlns="http://www.w3.org/2000/svg" xmlns:xlink="http://www.w3.org/1999/xlink">
    <!-- Generator: Sketch 52 (66869) - http://www.bohemiancoding.com/sketch -->
    <title>Group</title>
    <desc>Created with Sketch.</desc>
    <g id="Page-1" stroke="none" stroke-width="1" fill="none" fill-rule="evenodd">
        <g id="Group" transform="translate(-25.000000, 3.000000)">
            <g id="g2-leader" transform="translate(669.000000, 0.000000)">
                <polygon id="Path" stroke="#E75925" stroke-width="6.1656" fill="#456473" points="101.1 330.8 15.1 522 123.1 483.6 165.2 589.2 251.1 398.2"></polygon>
                <polygon id="Path" stroke="#E75925" stroke-width="6.1656" fill="#456473" points="361 330.8 446.9 522 338.9 483.6 296.8 589.2 211 398.2"></polygon>
                <circle id="Oval" stroke="#E75925" stroke-width="6.166" fill="#456473" cx="231" cy="231.1" r="230.3"></circle>
                <polygon id="Path" fill="#E75925" points="30 172.1 431.9 172.1 431.9 290.1 30 290.1"></polygon>
                <path d="M96.1,255.1 L96.1,206.9 L102.1,206.9 L102.1,249.7 L124.4,249.7 L124.4,255 L96.1,255.1 Z M136.6,255.1 L136.6,206.9 L168.1,206.9 L168.1,212.2 L142.5,212.2 L142.5,227.7 L167.5,227.7 L167.5,233 L142.5,233 L142.5,249.6 L168.1,249.6 L168.1,254.9 L136.6,254.9 L136.6,255.1 Z M215.5,255.1 L211.2,244.4 L187.3,244.4 L183,255.1 L176.1,255.1 L195.4,206.9 L202.8,206.9 L222.3,255.1 L215.5,255.1 Z M199.3,213.3 L189.1,239.2 L209.5,239.2 L199.3,213.3 Z M232.3,255.1 L232.3,206.9 L248.8,206.9 C263.7,206.9 273.5,217.3 273.5,230.9 C273.5,244.5 263.7,254.9 248.8,254.9 L232.3,255.1 Z M267.2,231.1 C267.2,220.7 260.6,212.4 248.8,212.4 L238.4,212.4 L238.4,249.9 L248.8,249.9 C260.4,249.8 267.2,241.3 267.2,231.1 Z M286.4,255.1 L286.4,206.9 L317.9,206.9 L317.9,212.2 L292.3,212.2 L292.3,227.7 L317.3,227.7 L317.3,233 L292.3,233 L292.3,249.6 L317.9,249.6 L317.9,254.9 L286.4,254.9 L286.4,255.1 Z M358.8,255.1 L346.4,235.9 L336.7,235.9 L336.7,255.1 L330.7,255.1 L330.7,206.9 L350,206.9 C358.8,206.9 365.1,212.6 365.1,221.5 C365.1,230.1 359.1,234.9 352.6,235.5 L365.5,255.1 L358.8,255.1 Z M359.2,221.5 C359.2,216.2 355.3,212.3 349.5,212.3 L336.9,212.3 L336.9,230.7 L349.5,230.7 C355.2,230.8 359.2,227 359.2,221.5 Z" id="Shape" fill="#FFFFFF" fill-rule="nonzero"></path>
                <circle id="Oval" fill="#90D7EE" cx="68.2" cy="231.1" r="10.5"></circle>
                <circle id="Oval" fill="#90D7EE" cx="393.8" cy="231.1" r="10.5"></circle>
                <circle id="Oval" stroke="#90D7EE" stroke-width="9.167" cx="231" cy="231.1" r="205.7"></circle>
                <path d="M171.5,93.9 C172.4,92.8 172.9,91.7 172.9,90.5 C172.9,88.6 171.3,87.2 169.3,87.2 C167.6,87.2 165.9,88.4 165.6,90.5 L162.9,89.9 C163.5,86.6 166.2,84.6 169.3,84.6 C172.9,84.6 175.7,87 175.7,90.7 C175.7,92.6 174.8,94.4 173.5,96 C170.8,99.1 170.8,99.1 168,102.6 L175.7,102.6 L175.7,105.4 L163.1,105.4 L163.1,103.9 L171.5,93.9 Z" id="Path" fill="#FFFFFF"></path>
                <path d="M163.3,118.9 L163.3,108.7 L185.6,108.7 C185.9,110.1 185.9,111.5 185.9,113 C185.9,128.4 173.3,141.1 157.8,141.1 C142.3,141.1 129.7,128.5 129.7,113 C129.7,97.5 142.3,84.9 157.8,84.9 L157.8,94.8 C147.7,94.8 139.6,103 139.6,113 C139.6,123 147.8,131.2 157.8,131.2 C165.8,131.2 172.7,126 175.1,118.8 L163.3,118.9 Z M206.8,111.9 C206.8,104.5 207.3,101.5 208.4,99.7 C209.8,97.5 212.8,96.1 216.7,96.1 C220.1,96.1 223,97.2 224.4,98.9 C225.6,100.3 226,102 226,104.7 L226,106.3 L219.7,106.3 C219.5,103.2 219.5,102.6 219.1,101.9 C218.6,101.1 217.7,100.7 216.6,100.7 C215.4,100.7 214.4,101.3 213.9,102.1 C213.3,103.5 213,105.7 213,111.9 C213,116.9 213.3,119.9 213.6,121.1 C213.9,122.2 215,122.7 216.4,122.7 C218.9,122.7 219.5,121.5 219.7,116.7 L226,116.7 C226,120.8 225.7,122.2 224.9,123.8 C223.7,126 220.7,127.2 216.3,127.2 C211.3,127.2 208.1,125.3 207.1,121.7 C206.9,120.4 206.8,116.8 206.8,111.9 Z M229.7,96.6 L239.5,96.6 C244.2,96.6 245,96.8 246.6,98 C248,99.2 248.8,101.1 248.8,104.1 C248.8,106.6 248.3,108.4 247.4,109.8 C246.5,110.9 245.7,111.4 243.3,111.9 C247.4,112.4 248.8,114.3 248.8,119.5 C248.8,120.4 249,122 249,124.1 C249.2,125.5 249.2,125.8 249.5,127.1 L242.8,127.1 C242.5,125.2 242.5,125.2 242.5,121.3 C242.5,117.7 242.2,115.8 241.4,115 C240.9,114.4 240.3,114.2 238.7,114.2 L235.6,114.2 L235.6,126.8 L229.3,126.8 L229.3,96.7 L229.7,96.6 Z M238.5,109.7 C241.3,109.7 242.4,108.5 242.4,105.4 C242.4,103.8 241.9,102.3 241.2,101.7 C240.6,101.2 240.3,101.1 238.7,101.1 L236,101.1 L236,109.7 L238.5,109.7 Z M252.8,111.8 C252.8,104.8 253.1,102.2 254.2,100.2 C255.6,97.7 258.6,96.1 263,96.1 C267.7,96.1 271,97.8 272.2,101.1 C272.8,102.7 273.1,105.8 273.1,111.8 C273.1,118.2 272.8,121.2 271.9,122.9 C270.5,125.7 267.3,127.3 263,127.3 C258.7,127.3 255.8,125.9 254.2,123.2 C253.1,121.3 252.8,118.7 252.8,111.8 Z M262.9,122.8 C264.8,122.8 265.9,121.9 266.3,120.1 C266.6,118.9 266.8,115.1 266.8,110.7 C266.8,106.1 266.5,103.5 266,102.4 C265.5,101.3 264.4,100.8 262.9,100.8 C261.2,100.8 259.9,101.6 259.6,102.9 C259.3,104.3 259.1,107.3 259.1,112.1 C259.1,116.2 259.3,118.8 259.4,120 C259.9,121.8 261.1,122.8 262.9,122.8 Z M275.3,96.6 L281.7,96.6 L283.8,107.6 C284.6,111.7 284.7,115.2 285,122.3 C286.4,113.1 286.6,110.4 287.2,107.6 L289.6,96.6 L296.7,96.6 L298.9,107.6 C300,112.6 300.3,116.1 300.5,122.3 C301,117.1 301.4,113.4 302.2,107.6 L304.1,96.6 L309.6,96.6 L303.5,126.9 L296.6,126.9 L293.8,112.8 C293.3,110.3 292.7,104.6 292.6,101.5 C291.7,108.4 291.7,109.2 291,112.8 L288,126.9 L281,126.9 L275.3,96.6 Z M312.6,96.6 L321.1,96.6 C326,96.6 327.5,96.9 329.1,98 C331,99.4 331.9,101.9 332.4,106.6 C332.6,108.5 332.7,110.9 332.7,113 C332.7,118.5 332.4,121.2 331.3,122.9 C329.9,125.4 327.1,127 323.3,127 L312.6,127 L312.6,96.6 Z M321.6,122.2 C323.8,122.2 325,121.7 325.5,120.6 C326,119.5 326.1,117.6 326.1,112.7 C326.1,107.4 325.9,105 325.3,103.5 C324.8,102.1 323.7,101.6 321.7,101.6 L318.9,101.6 L318.9,122.5 L321.6,122.5 L321.6,122.2 Z M195.5,84.6 L197.6,84.6 L197.6,140.6 L195.5,140.6 L195.5,84.6 Z" id="Shape" fill="#FFFFFF" fill-rule="nonzero"></path>
                <path d="M147.73,344.13 L147.73,346.39 L133.15,346.39 L133.15,361 L130.5,361 L130.5,329.72 L149.88,329.72 L149.88,331.97 L133.15,331.97 L133.15,344.13 L147.73,344.13 Z M171.73,361 L168.49,352.23 L154.29,352.23 L151.06,361 L148.29,361 L160.13,329.72 L162.64,329.72 L174.48,361 L171.73,361 Z M161.38,332.94 L155.1,349.98 L167.65,349.98 L161.38,332.94 Z M181.74,329.72 L181.74,358.77 L197.19,358.77 L197.19,361 L179.08,361 L179.08,329.72 L181.74,329.72 Z M204.93,329.72 L204.93,358.77 L220.37,358.77 L220.37,361 L202.26,361 L202.26,329.72 L204.93,329.72 Z M254.73,358.83 L254.73,361 L235.13,361 L235.13,359.02 L245.85,346.86 C247.63,344.813333 248.863333,343.123333 249.55,341.79 C250.236667,340.456667 250.58,339.16 250.58,337.9 C250.58,335.926667 250,334.363333 248.84,333.21 C247.68,332.056667 246.083333,331.48 244.05,331.48 C241.943333,331.48 240.243333,332.153333 238.95,333.5 C237.65,334.846667 237,336.593333 237,338.74 L234.44,338.74 C234.44,336.98 234.84,335.376667 235.64,333.93 C236.433333,332.483333 237.563333,331.346667 239.03,330.52 C240.496667,329.7 242.17,329.29 244.05,329.29 C246.91,329.29 249.146667,330.04 250.76,331.54 C252.373333,333.046667 253.18,335.096667 253.18,337.69 C253.18,339.15 252.723333,340.746667 251.81,342.48 C250.903333,344.213333 249.303333,346.376667 247.01,348.97 L238.29,358.83 L254.73,358.83 Z M278.38,342.22 L278.38,347.96 C278.38,352.373333 277.57,355.72 275.95,358 C274.33,360.286667 271.946667,361.43 268.8,361.43 C265.706667,361.43 263.336667,360.31 261.69,358.07 C260.043333,355.83 259.196667,352.566667 259.15,348.28 L259.15,342.67 C259.15,338.276667 259.966667,334.946667 261.6,332.68 C263.233333,330.42 265.62,329.29 268.76,329.29 C271.853333,329.29 274.213333,330.383333 275.84,332.57 C277.473333,334.75 278.32,337.966667 278.38,342.22 Z M275.8,348.37 L275.8,342.35 C275.8,338.77 275.216667,336.063333 274.05,334.23 C272.883333,332.396667 271.12,331.48 268.76,331.48 C266.433333,331.48 264.683333,332.376667 263.51,334.17 C262.336667,335.956667 261.736667,338.596667 261.71,342.09 L261.71,348.24 C261.71,351.806667 262.313333,354.533333 263.52,356.42 C264.733333,358.313333 266.493333,359.26 268.8,359.26 C271.093333,359.26 272.83,358.336667 274.01,356.49 C275.19,354.643333 275.786667,351.936667 275.8,348.37 Z M295.87,329.61 L295.87,361 L293.29,361 L293.29,332.81 L284.78,335.97 L284.78,333.56 L295.44,329.61 L295.87,329.61 Z M326.72,337.78 C326.72,339.393333 326.246667,340.843333 325.3,342.13 C324.353333,343.41 323.106667,344.35 321.56,344.95 C323.366667,345.563333 324.813333,346.56 325.9,347.94 C326.993333,349.313333 327.54,350.903333 327.54,352.71 C327.54,355.383333 326.63,357.506667 324.81,359.08 C322.99,360.646667 320.583333,361.43 317.59,361.43 C314.57,361.43 312.153333,360.65 310.34,359.09 C308.526667,357.53 307.62,355.403333 307.62,352.71 C307.62,350.93 308.143333,349.346667 309.19,347.96 C310.236667,346.566667 311.67,345.563333 313.49,344.95 C311.943333,344.35 310.71,343.41 309.79,342.13 C308.876667,340.843333 308.42,339.393333 308.42,337.78 C308.42,335.186667 309.253333,333.123333 310.92,331.59 C312.586667,330.056667 314.796667,329.29 317.55,329.29 C320.296667,329.29 322.513333,330.063333 324.2,331.61 C325.88,333.156667 326.72,335.213333 326.72,337.78 Z M324.96,352.73 C324.96,350.783333 324.263333,349.183333 322.87,347.93 C321.483333,346.676667 319.71,346.05 317.55,346.05 C315.383333,346.05 313.613333,346.663333 312.24,347.89 C310.866667,349.123333 310.18,350.736667 310.18,352.73 C310.18,354.716667 310.846667,356.303333 312.18,357.49 C313.506667,358.67 315.31,359.26 317.59,359.26 C319.81,359.26 321.593333,358.673333 322.94,357.5 C324.286667,356.326667 324.96,354.736667 324.96,352.73 Z M324.14,337.75 C324.14,335.963333 323.52,334.47 322.28,333.27 C321.046667,332.076667 319.47,331.48 317.55,331.48 C315.596667,331.48 314.016667,332.056667 312.81,333.21 C311.596667,334.363333 310.99,335.876667 310.99,337.75 C310.99,339.583333 311.596667,341.06 312.81,342.18 C314.016667,343.3 315.603333,343.86 317.57,343.86 C319.503333,343.86 321.08,343.296667 322.3,342.17 C323.526667,341.043333 324.14,339.57 324.14,337.75 Z" id="Shape" fill="#FFFFFF" fill-rule="nonzero"></path>
            </g>
            <g id="gitlab">
                <g id="g906" transform="translate(13.252093, 11.422873)">
                    <polygon id="Fill-14" fill="#E24329" points="303.473302 551.931927 303.473302 551.931927 410.753784 221.757322 196.19282 221.757322"></polygon>
                    <polygon id="Fill-16" fill="#FC6D26" points="303.473302 551.931292 196.19282 221.758267 45.8411539 221.758267"></polygon>
                    <path d="M45.8411539,221.757803 L13.2388532,322.094773 C10.2655436,331.246576 13.5227761,341.272234 21.308589,346.927037 L303.473302,551.930828 L45.8411539,221.757803 Z" id="Fill-18" fill="#FCA326"></path>
                    <path d="M45.8411539,221.758112 L196.19282,221.758112 L131.578154,22.8965395 C128.253095,12.6642625 113.77773,12.6642625 110.454248,22.8965395 L45.8411539,221.758112 Z" id="Fill-20" fill="#E24329"></path>
                    <polygon id="Fill-21" fill="#FC6D26" points="303.473302 551.931292 410.753784 221.758267 561.10546 221.758267"></polygon>
                    <path d="M561.105306,221.757803 L593.707611,322.094773 C596.680916,331.246576 593.423655,341.272234 585.637862,346.927037 L303.473147,551.930828 L561.105306,221.757803 Z" id="Fill-22" fill="#FCA326"></path>
                    <path d="M561.105306,221.758112 L410.75363,221.758112 L475.368306,22.8965395 C478.693368,12.6642625 493.168728,12.6642625 496.49221,22.8965395 L561.105306,221.758112 Z" id="Fill-23" fill="#E24329"></path>
                </g>
            </g>
        </g>
    </g>
</svg>